<?xml version="1.0" encoding="UTF-8"?>
<svg
	version="1.1"
	viewBox="0 0 24 24"
	xmlns="http://www.w3.org/2000/svg"
	>
	<path
		d="
			m	6.5605 2
			a	2.53 2.53 0 0 0-2.5605 2.5
			v	15
			a	2.53 2.53 0 0 0 2.5605 2.5
			h	10.879
			a	2.53 2.53 0 0 0 2.5605-2.5
			v	-10.5
			a	1 1 0 0 0-0.25977-0.66992
			l	-5.4395-6
			a	1 1 0 0 0-0.74023-0.33008
			h	-7
			z
			m	0 2
			h	5.4395
			v	3.1504
			a	2.79 2.79 0 0 0 2.7109 2.8496
			h	3.2891
			v	9.5
			a	0.53 0.53 0 0 1-0.56055 0.5
			h	-10.879
			a	0.53 0.53 0 0 1-0.56055-0.5
			v	-15
			a	0.53 0.53 0 0 1 0.56055-0.5
			z
			m	7.4395 1 2.7402 3
			h	-2
			a	0.79 0.79 0 0 1-0.74023-0.84961
			v	-2.1504
			z
			m	-5 7
			a	1 1 0 0 0 0 2
			h	3
			a	1 1 0 0 0 0-2
			h	-3
			z
			m	0 4
			a	1 1 0 0 0 0 2
			h	6
			a	1 1 0 0 0 0-2
			h	-6
			z
		"
	/>
</svg>
